2.860589629784e-01,3.744024327450e-01,7.485752965990e-01,2.189767258489e-01,7.191005722936e-01,7.399850036579e-01,3.052496398890e-01,2.877305637242e-01,4.626170556561e-01,2.693029094859e-01
7.307389542782e-01,7.594684936562e-01,6.880490760870e-01,2.698863061806e-01,7.079254608309e-01,7.042122009129e-01,7.425327791273e-01,5.491158582290e-01,7.188942815001e-01,7.201868410181e-01
6.266651329443e-01,3.750827182324e-01,7.484922115371e-01,7.652864193030e-01,7.043089325581e-01,2.517757410230e-01,7.853863677631e-01,5.134091907312e-01,3.075310045355e-01,2.794313741546e-01
3.638333502201e-01,2.856911482429e-01,6.207729674578e-01,2.339281511028e-01,2.515685441690e-01,7.702336900882e-01,7.205783321124e-01,5.066762500135e-01,7.696155105397e-01,6.853499230528e-01
6.556861181155e-01,5.452466903704e-01,6.996039858851e-01,6.498692924201e-01,2.856439796606e-01,7.671509702247e-01,2.830091816725e-01,2.522204002982e-01,7.781282982197e-01,2.690351946918e-01
7.534880990466e-01,6.126034934056e-01,3.028342972245e-01,7.175905232183e-01,7.455901326566e-01,5.357700735105e-01,7.395321257288e-01,2.545268365318e-01,7.049248183895e-01,7.271458227588e-01
7.372443865739e-01,6.312612336839e-01,7.550255443979e-01,4.683711943995e-01,3.817817160864e-01,7.841711394006e-01,2.337498858538e-01,2.758985818105e-01,3.724583782292e-01,7.643943677552e-01
2.197801409105e-01,2.852372962767e-01,2.290526389772e-01,6.908957099468e-01,3.013761543969e-01,6.944216611213e-01,7.698321879244e-01,3.812735630264e-01,3.464470294313e-01,2.987526096141e-01
7.013274617098e-01,7.680474826024e-01,6.107251060730e-01,6.822173341965e-01,2.631068426669e-01,2.234519947560e-01,2.260446056328e-01,2.603967384659e-01,4.628034962105e-01,6.553007210956e-01
6.501468210470e-01,7.739963684474e-01,2.615830794217e-01,7.376164874948e-01,5.223200554443e-01,3.507468790435e-01,7.217703034041e-01,6.371609801051e-01,2.323392238234e-01,2.451077575156e-01
2.701401653632e-01,7.683844220770e-01,3.130346374316e-01,4.249792247728e-01,7.237936807757e-01,2.383995854582e-01,2.545167364058e-01,3.530086044899e-01,2.663143727319e-01,6.320245468943e-01
6.272582109905e-01,2.538941701133e-01,2.359574304031e-01,3.308389174295e-01,7.731597426299e-01,7.196605176338e-01,7.477733406645e-01,3.137685514053e-01,2.912323552759e-01,3.950706820583e-01
4.769886520980e-01,7.204830917073e-01,6.803679863888e-01,7.086148277500e-01,2.590728417557e-01,6.603175622052e-01,7.582591923330e-01,7.393384903834e-01,7.275882761033e-01,2.748912344693e-01
7.563883370454e-01,7.619121915859e-01,2.648108153911e-01,4.280033591071e-01,7.667469720217e-01,6.737484500997e-01,2.464162197841e-01,3.662020826252e-01,2.950926652451e-01,3.644585045451e-01
4.157663885073e-01,2.432258990937e-01,4.262133433152e-01,2.466039175114e-01,3.253199336331e-01,7.767556040347e-01,4.570555917437e-01,7.552631984049e-01,2.576129460527e-01,2.408454137520e-01
2.827846650985e-01,2.813850123861e-01,4.886034757370e-01,7.078054833471e-01,2.899263397491e-01,2.269271077378e-01,4.366405755913e-01,2.341714444257e-01,2.479622556830e-01,7.360149864798e-01
7.490023436022e-01,7.594474571004e-01,6.902188142819e-01,7.023833812255e-01,7.504855981624e-01,3.338839367517e-01,2.861578715248e-01,7.330869496757e-01,6.086762793234e-01,6.637372728820e-01
7.530053706305e-01,2.642645273396e-01,7.403090548715e-01,7.070687118998e-01,6.333583530237e-01,4.328549726024e-01,2.447360420252e-01,7.602620188414e-01,3.424316236694e-01,2.721997033875e-01
3.012615574538e-01,7.464525910525e-01,2.163922430208e-01,4.266453863390e-01,7.653558479564e-01,7.117326369733e-01,3.390544897751e-01,6.699790920151e-01,7.255709753827e-01,7.042524949582e-01
3.067344187779e-01,7.103081588704e-01,6.445155584670e-01,7.226059953722e-01,7.223405896493e-01,6.558134799166e-01,7.362917496415e-01,2.656710292101e-01,7.093731238516e-01,2.595369000306e-01
3.463302077554e-01,2.822514748647e-01,7.019910235783e-01,7.446831816294e-01,3.058267884313e-01,2.895882413753e-01,6.920528231709e-01,7.512244678115e-01,7.457956434505e-01,6.993689985543e-01
5.330257187739e-01,2.867182855101e-01,4.370206443307e-01,2.825920520046e-01,7.063747484060e-01,7.554574931795e-01,2.854732033782e-01,7.707665273989e-01,2.589111299563e-01,7.499610473926e-01
2.418104764311e-01,2.402085808096e-01,8.069118943089e-01,6.879326510569e-01,2.697148062388e-01,7.605910674797e-01,6.259787248780e-01,4.537729396585e-01,3.157071842892e-01,4.786770283374e-01
7.499011265633e-01,5.305713826795e-01,7.630396218078e-01,2.929972959278e-01,6.804601945855e-01,6.928233593387e-01,7.719419591103e-01,3.812711680729e-01,3.002891426266e-01,2.408885130878e-01
6.389317350152e-01,3.279354941557e-01,7.445031642383e-01,3.099578924130e-01,2.472703883218e-01,3.536706953164e-01,2.436497602008e-01,7.411158308509e-01,3.420387241307e-01,7.460369864327e-01
6.379357004179e-01,7.305421716450e-01,6.321883579377e-01,3.605686304447e-01,7.336600069745e-01,2.609594849828e-01,2.753474556924e-01,2.626824212231e-01,7.505648449030e-01,2.868429497299e-01
2.403857871319e-01,2.648433574341e-01,7.461718455224e-01,4.206047182964e-01,5.020525108401e-01,3.139527008214e-01,2.628107028767e-01,7.274697627671e-01,7.236354723064e-01,2.492816950297e-01
7.491826436791e-01,2.654142496303e-01,2.830155985685e-01,7.407970954686e-01,3.287594927900e-01,3.589224002459e-01,7.425694595667e-01,7.168561150782e-01,3.368377737830e-01,7.175197073010e-01
7.458406581571e-01,3.538322329796e-01,7.568206291257e-01,7.424184884683e-01,5.576512566658e-01,7.718677792671e-01,7.044908321905e-01,7.240241698330e-01,4.105496226241e-01,7.201484594504e-01
4.182587285156e-01,2.899745308951e-01,2.551969933725e-01,7.090176742129e-01,7.703919831939e-01,2.441223837808e-01,3.981442980677e-01,2.544239085493e-01,3.679420272771e-01,2.401940427103e-01
2.473749734526e-01,2.584255214402e-01,3.552858293588e-01,7.223305627928e-01,7.897786685809e-01,2.860611182701e-01,4.482192208350e-01,7.619665981563e-01,3.547120388892e-01,6.625715128306e-01
7.594086421518e-01,7.746326366986e-01,6.910342373323e-01,3.462824857194e-01,3.125983883804e-01,5.067577971864e-01,3.606979690377e-01,7.466254055637e-01,2.483215706007e-01,2.552902166850e-01
2.500584677581e-01,2.397048528601e-01,7.479884471218e-01,3.655104006922e-01,4.771116451374e-01,2.422964846928e-01,7.496393675880e-01,2.685109219880e-01,5.301592687306e-01,2.702501750806e-01
7.404415004131e-01,7.513177964396e-01,7.755740749643e-01,6.474840513859e-01,2.944507181752e-01,4.266243661263e-01,7.943812776985e-01,2.745604978728e-01,3.957766784379e-01,6.570911786765e-01
3.374124373336e-01,6.650818588477e-01,2.711006638804e-01,7.157467563253e-01,7.436323633973e-01,7.186320590383e-01,7.627177786161e-01,5.478085374908e-01,2.574660148013e-01,7.381946607834e-01
7.326382918646e-01,3.929348046801e-01,2.558150729734e-01,4.155705005111e-01,2.789783109322e-01,2.602034920783e-01,6.632471333113e-01,2.826575387957e-01,7.636018715855e-01,2.584139728188e-01
3.266048535850e-01,3.849886253728e-01,3.551292650300e-01,7.723503648248e-01,2.496382126147e-01,7.572802891237e-01,5.937402549255e-01,3.525916660122e-01,7.754301140078e-01,7.572240611082e-01
2.558406245612e-01,6.324151683721e-01,7.613651236085e-01,3.698265298991e-01,7.599245696111e-01,5.960972163944e-01,6.634855359968e-01,2.661111932308e-01,2.806070519925e-01,7.682739475206e-01
2.594230845762e-01,7.478908447908e-01,7.067898129182e-01,2.688966147634e-01,2.498360237896e-01,3.815561174010e-01,5.496764591033e-01,2.806535576415e-01,3.046241818174e-01,2.516357992493e-01
7.318165473060e-01,2.613072073273e-01,7.724152341244e-01,6.600697440106e-01,2.595421720875e-01,2.446326483534e-01,4.765582808515e-01,2.820442620397e-01,7.370736864978e-01,4.132191816526e-01
6.854430785704e-01,6.910920371349e-01,2.859369471279e-01,4.893280015968e-01,7.475410392085e-01,3.386338094314e-01,7.186484514457e-01,7.349596807097e-01,7.587359740070e-01,2.393224895602e-01
3.191762706960e-01,7.301906129127e-01,4.837742869311e-01,2.544404900236e-01,3.117360324982e-01,7.446315101981e-01,6.644461044527e-01,7.401836362531e-01,2.498126937121e-01,7.339030038151e-01
3.351755522999e-01,7.670911277917e-01,3.722966987411e-01,7.568506885076e-01,3.265694643664e-01,2.741234017557e-01,2.694140628184e-01,6.270088339269e-01,7.411283121210e-01,2.622616113604e-01
3.097236225043e-01,2.965800693635e-01,3.180815172480e-01,2.566650691455e-01,3.030139874243e-01,2.523186653405e-01,7.739772363075e-01,7.460527277713e-01,2.985704461626e-01,4.622605076547e-01
2.701636184366e-01,2.437639739731e-01,3.006090840421e-01,2.427035851657e-01,4.158090045440e-01,2.686799240911e-01,2.545975961492e-01,5.336744650340e-01,7.216690290555e-01,7.125210516693e-01
2.521315482501e-01,6.486178129171e-01,7.853594549298e-01,5.584438771267e-01,6.911482303178e-01,6.977150005579e-01,3.218547627263e-01,7.470011017666e-01,7.505128426695e-01,7.056377701268e-01
6.210985259872e-01,2.209377496623e-01,5.235083179075e-01,2.333561115855e-01,2.508150411060e-01,5.641337394761e-01,7.246927541293e-01,2.540003483221e-01,2.812719723953e-01,7.472386072455e-01
3.090359344836e-01,7.325054128288e-01,7.618132283108e-01,2.434442072582e-01,3.232154792700e-01,2.371588808182e-01,6.307909801792e-01,5.584933426479e-01,7.308635429864e-01,7.116731907274e-01
5.967854363207e-01,2.962087360649e-01,7.501401803134e-01,7.605482496919e-01,5.419760587956e-01,6.371466833157e-01,2.418630956585e-01,2.313563979653e-01,2.561846064537e-01,2.658436254872e-01
3.242429469910e-01,7.282197035935e-01,3.886296275811e-01,2.676396306655e-01,2.576873393994e-01,6.837925295338e-01,2.563198870636e-01,2.643631339603e-01,6.950904979400e-01,7.257706748608e-01
6.918674057353e-01,7.323809668349e-01,2.575720713046e-01,2.452577111731e-01,3.006586698534e-01,7.801245407968e-01,6.415461962430e-01,3.111222531012e-01,5.860879052535e-01,2.786062559089e-01
2.686414689843e-01,7.150047744212e-01,7.222369170695e-01,7.408523206909e-01,3.180747099203e-01,3.218093328734e-01,4.349432167657e-01,7.549481198089e-01,2.432795868278e-01,6.979219540610e-01
2.719887587333e-01,6.616449281055e-01,6.012774611109e-01,7.282776158032e-01,7.259942684806e-01,7.356837334204e-01,3.338928928372e-01,7.399280202438e-01,2.669985888209e-01,2.652976153867e-01
7.000681082124e-01,2.348982273809e-01,7.012273415229e-01,3.009689263932e-01,7.467277407793e-01,2.676332239823e-01,7.349947117043e-01,5.548390206499e-01,7.616624873587e-01,6.267434174888e-01
2.421657022755e-01,3.642663490534e-01,2.409330086414e-01,4.961150885459e-01,5.761476545797e-01,7.169673309710e-01,2.421677803478e-01,2.692618281529e-01,7.333245446399e-01,2.364536256796e-01
7.444006981899e-01,4.166738104882e-01,3.659448450951e-01,2.534982454435e-01,7.715394301273e-01,2.447348900702e-01,5.837699147952e-01,7.661178739070e-01,2.458665436177e-01,6.176852258115e-01
2.661349613976e-01,7.516440280091e-01,2.692864733213e-01,2.281263910297e-01,3.188927996893e-01,5.481417738457e-01,3.038304994621e-01,7.515722688115e-01,5.632015849703e-01,2.598806219089e-01
3.407361698418e-01,2.553630283483e-01,2.700259990529e-01,7.628866266830e-01,2.311652880894e-01,3.596541604965e-01,3.009158703326e-01,7.375263869441e-01,4.145269184366e-01,2.845611081069e-01
2.790764277814e-01,3.884332344768e-01,7.377782445235e-01,7.358067758058e-01,7.322495271452e-01,3.801511120399e-01,3.624092738628e-01,2.409177683983e-01,7.398504805358e-01,7.297922358728e-01
7.166927913091e-01,6.858589788132e-01,2.702722139905e-01,7.321519900343e-01,2.697197207926e-01,7.344335541837e-01,2.832500143663e-01,7.285173632952e-01,4.623531814395e-01,7.071877291464e-01
2.684086494470e-01,7.487532482045e-01,2.557850901474e-01,7.209997736858e-01,4.054825022637e-01,2.384646556865e-01,7.266533790495e-01,5.144249753912e-01,7.158750675428e-01,7.172429585880e-01
2.419281634845e-01,5.417848873262e-01,2.275852073268e-01,2.504907194274e-01,6.465369309767e-01,3.067840867973e-01,7.644764038517e-01,2.398530248733e-01,6.930369805387e-01,4.581437562909e-01
7.648191678789e-01,4.021673646039e-01,7.186764119168e-01,2.752026824474e-01,3.105313812929e-01,6.663229722944e-01,4.210964672860e-01,7.595926941444e-01,7.678442788921e-01,2.657559783953e-01
7.403594218563e-01,2.765354557777e-01,2.552504363776e-01,6.709612158356e-01,6.744263942664e-01,6.815247448090e-01,3.311020421272e-01,7.154065100216e-01,7.306762669460e-01,2.689814256925e-01
7.289813343032e-01,2.640811573318e-01,5.009869760422e-01,2.575213130925e-01,7.091742509311e-01,7.450269542775e-01,2.678744706922e-01,3.905878278268e-01,7.768313830109e-01,6.870783791037e-01
7.450540863141e-01,2.916532291653e-01,2.547736640930e-01,7.484409543546e-01,5.717579590280e-01,2.951434107687e-01,2.605325936329e-01,3.995913833664e-01,7.217021175817e-01,7.494252598756e-01
6.896441070381e-01,7.633374700801e-01,2.402468402316e-01,2.970947802783e-01,3.423906865252e-01,3.259861821404e-01,6.795968837346e-01,3.025083517482e-01,2.470576355671e-01,7.228079651026e-01
7.189804276153e-01,3.290586313319e-01,6.675899039062e-01,3.008201594887e-01,7.516640802971e-01,2.667817388088e-01,3.363452949370e-01,2.383992391056e-01,2.632743344183e-01,7.008661098045e-01
2.511968600377e-01,7.995425975177e-01,4.571813673447e-01,7.654375657640e-01,2.692791570470e-01,6.630571274259e-01,4.214589617755e-01,2.518822790193e-01,2.444991409476e-01,3.838988084791e-01
2.794605447159e-01,2.664990840105e-01,3.870040097643e-01,4.320979595066e-01,7.455683391613e-01,7.312453970391e-01,7.691449974544e-01,7.364822750536e-01,7.342108467477e-01,3.747680728309e-01
8.015866090393e-01,3.612034152754e-01,2.899679069724e-01,7.651662525727e-01,2.612508511542e-01,7.294963553964e-01,6.542053631926e-01,3.095901415897e-01,3.669489503342e-01,3.067982906942e-01
6.504801851790e-01,3.225621027428e-01,3.355327153341e-01,2.569127629606e-01,2.774627318709e-01,2.795233576200e-01,2.341430422516e-01,3.512107972082e-01,2.698132217365e-01,2.635331231540e-01
3.275537975574e-01,2.635489027011e-01,2.910288067181e-01,5.885223463061e-01,5.856249051214e-01,7.655045174521e-01,2.464627882431e-01,2.665977317484e-01,2.791404497557e-01,7.596292769825e-01
2.843782339213e-01,7.031032663518e-01,6.807253463681e-01,2.604078455596e-01,7.693271165069e-01,2.737782040658e-01,6.073228390605e-01,7.541552434452e-01,3.543442723220e-01,2.997168282630e-01
7.734579001290e-01,6.090817930448e-01,2.668754790102e-01,2.596199759473e-01,2.955650323890e-01,3.281132812208e-01,5.407851246553e-01,7.425746658619e-01,7.563324566557e-01,7.041596126952e-01
