1.251666666667e+01,2.494202898551e+00,2.288550724638e+00,2.082318840580e+01,9.234782608696e+01,2.070724637681e+00,1.758405797101e+00,3.901449275362e-01,1.451884057971e+00,4.086956521739e+00,9.411594202899e-01,2.490724637681e+00,4.582318840580e+02
1.292983870968e+01,2.504032258065e+00,2.408064516129e+00,1.989032258065e+01,1.035967741935e+02,2.111129032258e+00,1.584032258065e+00,3.883870967742e-01,1.503387096774e+00,5.650322580645e+00,8.839677419355e-01,2.365483870968e+00,7.283387096774e+02
1.380446808511e+01,1.883404255319e+00,2.426170212766e+00,1.702340425532e+01,1.055106382979e+02,2.867234042553e+00,3.014255319149e+00,2.853191489362e-01,1.910425531915e+00,5.702553191489e+00,1.078297872340e+00,3.114042553191e+00,1.195148936170e+03
